{
    "content": [
        {
            "columns": 4,
            "content": [
                [
                    "column1",
                    "column2",
                    "column3",
                    "column4"
                ],
                [
                    "row1",
                    "row1",
                    "row1",
                    "row1"
                ],
                [
                    "row2",
                    "row2",
                    "row2",
                    "row2"
                ]
            ],
            "context": {},
            "pdf_context": {
                "bottom": 270,
                "left": 56,
                "page": 2,
                "right": 555,
                "top": 216
            },
            "rows": 3,
            "title": "table1",
            "type": "tabular",
            "version": "1.0"
        },
        {
            "columns": 4,
            "content": [
                [
                    "column1",
                    "column2",
                    "column3",
                    "column4"
                ],
                [
                    "row1",
                    "row1",
                    "row1",
                    "row1"
                ],
                [
                    "row2",
                    "row2",
                    "row2",
                    "row2"
                ]
            ],
            "context": {},
            "pdf_context": {
                "bottom": 270,
                "left": 56,
                "page": 2,
                "right": 555,
                "top": 216
            },
            "rows": 3,
            "title": "table2",
            "type": "tabular",
            "version": "1.0"
        }
    ],
    "context": {},
    "title": "Sorcero's test PDF",
    "type": "collection",
    "version": "1.0"
}