{
    "content": "\"Username\",\"Identifier\",\"First name\",\"Last name\"\n\"booker12\",\"9012\",\"Rachel\",\"Booker\"\n\"grey07\",\"2070\",\"Laura\",\"Grey\"\n\"johnson81\",\"4081\",\"Craig\",\"Johnson\"\n\"jenkins46\",\"9346\",\"Mary\",\"Jenkins\"\n\"smith79\",\"5079\",\"Jamie\",\"Smith\"",
    "context": {},
    "title": "",
    "type": "csv",
    "version": "1.0"
}