{
    "columns": 4,
    "content": [
        [
            "test123",
            "2192",
            "Harry",
            "Potter"
        ]
    ],
    "context": {},
    "pdf_context": null,
    "rows": 1,
    "title": "",
    "type": "tabular",
    "version": "1.0"
}