{
    "content": "<?xml version=\"1.0\" encoding=\"UTF-8\"?>\n<breakfast_menu>\n<food>\n    <name>Belgian Waffles</name>\n    <price>$5.95</price>\n    <description>\n   Two of our famous Belgian Waffles with plenty of real maple syrup\n   </description>\n    <calories>&lt;650</calories>\n</food>\n<food>\n    <name>Strawberry Belgian Waffles</name>\n    <price>$7.95</price>\n    <description>\n    Light Belgian waffles covered with strawberries and whipped cream\n    </description>\n    <calories>&gt;900</calories>\n</food>\n<food>\n    <name>Berry-Berry Belgian Waffles</name>\n    <price>$8.95</price>\n    <description>\n    Belgian waffles covered with assorted fresh berries and whipped cream\n    </description>\n    <calories>900</calories>\n</food>\n<food>\n    <name>French Toast</name>\n    <price>$4.50</price>\n    <description>\n    Thick slices made from our homemade sourdough bread\n    </description>\n    <calories>600</calories>\n</food>\n<food>\n    <name>Homestyle Breakfast</name>\n    <price>$6.95</price>\n    <description>\n    Two eggs, bacon or sausage, toast, and our ever-popular hash browns\n    </description>\n    <calories>950</calories>\n</food>\n</breakfast_menu>\n\n",
    "context": {},
    "title": "",
    "type": "xml",
    "version": "1.0"
}