{
    "content": "<html><body>\n[file:///wlogo-1-2.png]\n<source src=\"wp-content/uploads/2019/09/wlogo-1-2.png\"/>\n</body>\n</html>",
    "context": {},
    "title": "",
    "type": "html",
    "version": "1.0"
}