{
    "content": "Lorem ipsum dolor sit amet, consectetur adipiscing elit, sed do eiusmod tempor incididunt ut\nlabore et dolore magna aliqua. Ut enim ad minim veniam, quis nostrud exercitation ullamco\nlaboris nisi ut aliquip ex ea commodo consequat. Duis aute irure dolor in reprehenderit in\nvoluptate velit esse cillum dolore eu fugiat nulla pariatur. Excepteur sint occaecat cupidatat\nnon proident, sunt in culpa qui officia deserunt mollit anim id est laborum.\n\nLorem ipsum dolor sit amet, consectetur adipiscing elit, sed do eiusmod tempor incididunt ut\nlabore et dolore magna aliqua. Ut enim ad minim veniam, quis nostrud exercitation ullamco\nlaboris nisi ut aliquip ex ea commodo consequat. Duis aute irure dolor in reprehenderit in\nvoluptate velit esse cillum dolore eu fugiat nulla pariatur. Excepteur sint occaecat cupidatat\nnon proident, sunt in culpa qui officia deserunt mollit anim id est laborum.\n\n<image>\n\n\u2018> sorcero\n\n</image>\n\nLorem ipsum dolor sit amet, consectetur adipiscing elit, sed do eiusmod tempor incididunt ut\nlabore et dolore magna aliqua. Ut enim ad minim veniam, quis nostrud exercitation ullamco\nlaboris nisi ut aliquip ex ea commodo consequat. Duis aute irure dolor in reprehenderit in\nvoluptate velit esse cillum dolore eu fugiat nulla pariatur. Excepteur sint occaecat cupidatat\nnon proident, sunt in culpa qui officia deserunt mollit anim id est laborum.\n\nLorem ipsum dolor sit amet, consectetur adipiscing elit, sed do eiusmod tempor incididunt ut\nlabore et dolore magna aliqua. Ut enim ad minim veniam, quis nostrud exercitation ullamco\nlaboris nisi ut aliquip ex ea commodo consequat. Duis aute irure dolor in reprehenderit in\nvoluptate velit esse cillum dolore eu fugiat nulla pariatur. Excepteur sint occaecat cupidatat\nnon proident, sunt in culpa qui officia deserunt mollit anim id est laborum.\n\n<shape>\n\n \n\n</shape>\n\nLorem ipsum dolor sit amet, consectetur adipiscing elit, sed do eiusmod tempor incididunt ut\nlabore et dolore magna aliqua. Ut enim ad minim veniam, quis nostrud exercitation ullamco\nlaboris nisi ut aliquip ex ea commodo consequat. Duis aute irure dolor in reprehenderit in\nvoluptate velit esse cillum dolore eu fugiat nulla pariatur. Excepteur sint occaecat cupidatat\nnon proident, sunt in culpa qui officia deserunt mollit anim id est laborum.\n\nLorem ipsum dolor sit amet, consectetur adipiscing elit, sed do eiusmod tempor incididunt ut\nlabore et dolore magna aliqua. Ut enim ad minim veniam, quis nostrud exercitation ullamco\nlaboris nisi ut aliquip ex ea commodo consequat. Duis aute irure dolor in reprehenderit in\nvoluptate velit esse cillum dolore eu fugiat nulla pariatur. Excepteur sint occaecat cupidatat\nnon proident, sunt in culpa qui officia deserunt mollit anim id est laborum.\n\n \n\n \n\n \n\n \n\n \n\n \n\n \n\n \n\n \n\n<table>\n\ncolumn1 column2 column3 column4\nrowl rowl rowl rowl\nrow2 row2 row2 row2\n</table>\n\nLorem ipsum dolor sit amet, consectetur adipiscing elit, sed do eiusmod tempor incididunt ut\nlabore et dolore magna aliqua. Ut enim ad minim veniam, quis nostrud exercitation ullamco\nlaboris nisi ut aliquip ex ea commodo consequat. Duis aute irure dolor in reprehenderit in\nvoluptate velit esse cillum dolore eu fugiat nulla pariatur. Excepteur sint occaecat cupidatat\nnon proident, sunt in culpa qui officia deserunt mollit anim id est laborum.\n\nLorem ipsum dolor sit amet, consectetur adipiscing elit, sed do eiusmod tempor incididunt ut\nlabore et dolore magna aliqua. Ut enim ad minim veniam, quis nostrud exercitation ullamco\nlaboris nisi ut aliquip ex ea commodo consequat. Duis aute irure dolor in reprehenderit in\nvoluptate velit esse cillum dolore eu fugiat nulla pariatur. Excepteur sint occaecat cupidatat\nnon proident, sunt in culpa qui officia deserunt mollit anim id est laborum.\n\nLorem ipsum dolor sit amet, consectetur adipiscing elit, sed do eiusmod tempor incididunt ut\nlabore et dolore magna aliqua. Ut enim ad minim veniam, quis nostrud exercitation ullamco\nlaboris nisi ut aliquip ex ea commodo consequat. Duis aute irure dolor in reprehenderit in\nvoluptate velit esse cillum dolore eu fugiat nulla pariatur. Excepteur sint occaecat cupidatat\nnon proident, sunt in culpa qui officia deserunt mollit anim id est laborum.\n\nLorem ipsum dolor sit amet, consectetur adipiscing elit, sed do eiusmod tempor incididunt ut\nlabore et dolore magna aliqua. Ut enim ad minim veniam, quis nostrud exercitation ullamco\nlaboris nisi ut aliquip ex ea commodo consequat. Duis aute irure dolor in reprehenderit in\nvoluptate velit esse cillum dolore eu fugiat nulla pariatur. Excepteur sint occaecat cupidatat\nnon proident, sunt in culpa qui officia deserunt mollit anim id est laborum.\n\nLorem ipsum dolor sit amet, consectetur adipiscing elit, sed do eiusmod tempor incididunt ut\nlabore et dolore magna aliqua. Ut enim ad minim veniam, quis nostrud exercitation ullamco\nlaboris nisi ut aliquip ex ea commodo consequat. Duis aute irure dolor in reprehenderit in\nvoluptate velit esse cillum dolore eu fugiat nulla pariatur. Excepteur sint occaecat cupidatat\nnon proident, sunt in culpa qui officia deserunt mollit anim id est laborum.\n\nLorem ipsum dolor sit amet, consectetur adipiscing elit, sed do eiusmod tempor incididunt ut\nlabore et dolore magna aliqua. Ut enim ad minim veniam, quis nostrud exercitation ullamco\nlaboris nisi ut aliquip ex ea commodo consequat. Duis aute irure dolor in reprehenderit\n<columnl>aaa aaaaaa a\naddaa aa aa a aaaaaa aaaa\naa aa a aaaaa\nadadaaaaadaaaa aadadaaaaa\nadadaaaaa aa aaa aaa aaaa\naa adadaaa aa aa aa aaa\nadaaaaa aaa aa a aa aa a aa\naaadadaaaaaaaadaa\naaaaaaa aaa aa aaa aa\nadadaaaaaa aa aaaaaaa\naaaaaa\n\nadadaaaaa a aaaaadaa aa a\naadaaaaa aa aa aa a aaa a\naa aaaaaaa aaaaaa\naadaaaaa dadaaa adadaa aa\naaaaaaaaaaaa aa\naaaaaaa aaaaaa aaa\nadadaaaaa aaa aaaadadaaaaaa\naa aaaaa\n\naa adaaaaa adaaa aaaa\nadadaaaaaa a aa adaaaaaa\naaaaaaaaa aaaaaaa\nadaaaaaadadaaa aaaaaa aa\naddaaa aaa aaa aadaaaaaa\n\n<column2>bbbb bbb bbb b\nb bb bb bb bb bb bbbb b\nbbbbbbbbbbbbbb\n\nbb bbbbbbbb bbbbbb\nbbbbb ~=bbbbb bbbbbb\nbbbbb = bbbbb bbbbbb\n\nbbbbbbb bbbbbbb\n\nbbbbbb bbbbbbb bbbbbb\nbbbbbbbb bbbbbbbb\nbbbbbbbbbb bb\nbbbbbbbbbbb bbbbbbb bbb\nbbbbbb bbbbbb bb bbbbb\nbbbb bbbbb bbbbb bbbbb\nbbbb bbbbbb bbbbb\nbbbbbb bbbb bbbbb bbbbb\nbb bb bbbbb b bb\n\nbb bb bbb bbbb bbbb\nbbbbb bb bb bbbbb bbb bb\nbbbb bbb bbbb bbb bbbbb\nbbb bbbb bbbb bbb bbbb\nbbbbbb bbbbb bbbbbb\n\n<column3>ccccc cccccc\nccccc ccc C C C Cc CcCcCccc\nccccc ccc C C C Cc CcCcCccc\ncccccccce cc Cc ccc CCC C CC\nccc cccce cccce cccc CCcCcCcCcc\ncccce ccc ccc ccc cccccc\nccccce cccc ccccccc C CCC\nccc cc cccce ccc cccc CCCCcC\nccc ccccce cc cc cccce ccc\nccccc ccc CCcccc CCCC CCCCC\nccccccc cc Ccccc CCC CCC CC\nc ccc ccc ccce cc ccccce CCC\ncccccccce ccccccccc CC C\nccc ccc Cc cc ccc CCCCC CCCC\ncccc CCCCCCCCCC\n\nccc ccc ccc cccccc CCcccc\ncccce ccccccc Cc ccc ccc CC\ncccce ccc ccce ccccc ccc\ncccccc cc cc cccc ccc CCCCC\nccc cccccc cccc ccccc\nccccccc cc Ccccc CCC CCC CC\nc ccc ccc cccce cc CCCCCCCCC\ncc c ccc ccc Cc Cc ccc CCCCcC\ncccc Cccc CCCCCC CCCC CCC",
    "context": {},
    "pdf_context": null,
    "title": "Sorcero's test PDF",
    "type": "text",
    "version": "1.0"
}