{
    "columns": 4,
    "content": [
        [
            "Username",
            "Identifier",
            "First name",
            "Last name"
        ],
        [
            "booker12",
            "9012",
            "Rachel",
            "Booker"
        ],
        [
            "grey07",
            "2070",
            "Laura",
            "Grey"
        ],
        [
            "johnson81",
            "4081",
            "Craig",
            "Johnson"
        ],
        [
            "jenkins46",
            "9346",
            "Mary",
            "Jenkins"
        ],
        [
            "smith79",
            "5079",
            "Jamie",
            "Smith"
        ]
    ],
    "context": {},
    "pdf_context": null,
    "rows": 6,
    "title": "",
    "type": "tabular",
    "version": "1.0"
}