{
    "content": [
        {
            "content": "Lorem ipsum dolor sit amet, consectetur adipiscing elit, sed do eiusmod tempor incididunt ut labore et dolore magna aliqua. Enim sed faucibus turpis in eu. Consectetur purus ut faucibus pulvinar elementum integer enim neque. Vitae aliquet nec ullamcorper sit amet risus nullam. In massa tempor nec feugiat nisl pretium fusce. Sit amet commodo nulla facilisi. Porta non pulvinar neque laoreet suspendisse. Integer feugiat scelerisque varius morbi. Amet consectetur adipiscing elit ut aliquam purus sit. Tellus in metus vulputate eu scelerisque felis. Faucibus nisl tincidunt eget nullam.",
            "context": {},
            "pdf_context": null,
            "title": "",
            "type": "text",
            "version": "1.0"
        },
        {
            "content": "Fringilla phasellus faucibus scelerisque eleifend. Volutpat commodo sed egestas egestas fringilla phasellus. Dapibus ultrices in iaculis nunc sed augue lacus viverra vitae. Viverra accumsan in nisl nisi scelerisque eu. Leo urna molestie at elementum eu facilisis. Amet justo donec enim diam vulputate ut pharetra. Egestas egestas fringilla phasellus faucibus scelerisque. Lectus arcu bibendum at varius vel pharetra vel turpis nunc. Enim lobortis scelerisque fermentum dui faucibus in ornare quam. Felis eget nunc lobortis mattis.",
            "context": {},
            "pdf_context": null,
            "title": "",
            "type": "text",
            "version": "1.0"
        },
        {
            "content": "Risus nec feugiat in fermentum posuere. Odio ut enim blandit volutpat maecenas. Quisque sagittis purus sit amet volutpat consequat mauris nunc congue. Eget duis at tellus at. Ullamcorper eget nulla facilisi etiam dignissim diam. Volutpat odio facilisis mauris sit amet massa vitae tortor. Ac felis donec et odio pellentesque diam. Ut diam quam nulla porttitor. Ut tristique et egestas quis ipsum suspendisse. Urna molestie at elementum eu facilisis sed. Aenean pharetra magna ac placerat vestibulum. Tempus iaculis urna id volutpat lacus laoreet non. Vestibulum morbi blandit cursus risus at ultrices mi. Faucibus vitae aliquet nec ullamcorper sit. Vehicula ip-\nsum a arcu cursus vitae congue mauris rhoncus aenean.",
            "context": {},
            "pdf_context": null,
            "title": "",
            "type": "text",
            "version": "1.0"
        },
        {
            "content": "Pulvinar mattis nunc sed blandit libero volutpat sed cras. Id porta nibh venenatis cras sed felis eget velit aliquet. Volutpat commodo sed egestas egestas fringilla phasellus faucibus scelerisque. Sed arcu non odio euismod lacinia at quis risus. Dignissim sodales ut eu sem. Non blandit massa enim nec dui nunc mattis enim. Tristique nulla aliquet enim tortor at. Varius duis at consectetur lorem donec. Quam nulla porttitor massa id neque aliquam vestibulum morbi. Justo laoreet sit amet cursus sit amet dictum sit amet. Ut pharetra sit amet aliquam id. Urna molestie at elementum eu facilisis sed odio morbi quis. Arcu cursus euismod quis viverra nibh cras pulvinar mattis nunc. Eget egestas purus viverra accumsan in nisl nisi scelerisque eu. Ut aliquam purus sit amet luctus venenatis lectus magna fringilla. Morbi enim nunc faucibus a.",
            "context": {},
            "pdf_context": null,
            "title": "",
            "type": "text",
            "version": "1.0"
        },
        {
            "content": "Sollicitudin nibh sit amet commodo nulla facilisi nullam vehicula. Dictum non consectetur a erat nam at lectus. A iaculis at erat pellentesque adipiscing commodo elit. Enim ut tellus elementum sagittis vitae et leo. Cursus mattis molestie a iaculis at erat pellentesque adipiscing commodo. Habitasse platea dictumst vestibulum rhoncus. Massa sapien faucibus et molestie ac. Cursus sit amet dictum sit. Ornare arcu odio ut sem nulla pharetra diam. Lectus arcu bibendum at varius vel. Condimentum mattis pellentesque id nibh tortor id aliquet lectus. Quam elementum pulvinar etiam non quam lacus. Quam viverra orci sagittis eu.\n",
            "context": {},
            "pdf_context": null,
            "title": "",
            "type": "text",
            "version": "1.0"
        }
    ],
    "context": {},
    "title": "",
    "type": "collection",
    "version": "1.0"
}