{
    "content": "<?xml version=\"1.0\" encoding=\"utf-8\"?>\n<breakfast_menu>\nreplacement\nreplacement\nreplacement\nreplacement\nreplacement\n</breakfast_menu>",
    "context": {},
    "title": "",
    "type": "xml",
    "version": "1.0"
}